0.000001000000000
0.000001000000000
0.000003000000000
0.000011000000000
0.000051000000000
0.000270000000000
0.000758000000000
0.003231000000000
0.013792000000000
0.053387000000000
0.204136000000000
0.869140000000000
